﻿thinkBack: Stock quote and option quote for AAPL on 6/14/17 01:59:59

UNDERLYING
Last,Net Chng,Volume,Open,High,Low
146.59,+1.17,"34,165,445",147.16,147.45,145.15

16 JUN 17  (3)  100

21 JUL 17  (38)  100
,,Last,Mark,Bid,Ask,Exp,Strike,Bid,Ask,Last,Mark,,
,,32.65,31.675,31.40,31.95,21 JUL 17,115,.03,.04,.03,.035,,
,,26.21,26.725,26.45,27.00,21 JUL 17,120,.06,.07,.08,.065,,
,,22.05,21.850,21.70,22.00,21 JUL 17,125,.13,.14,.14,.135,,
,,16.98,17.025,16.85,17.20,21 JUL 17,130,.26,.28,.27,.270,,
,,12.30,12.300,12.15,12.45,21 JUL 17,135,.55,.58,.55,.565,,
,,7.95,8.025,7.95,8.10,21 JUL 17,140,1.21,1.23,1.22,1.220,,
,,4.45,4.475,4.45,4.50,21 JUL 17,145,2.62,2.71,2.69,2.665,,
,,2.03,2.040,2.01,2.07,21 JUL 17,150,5.20,5.40,5.30,5.300,,
,,.78,.795,.77,.82,21 JUL 17,155,8.90,9.05,9.10,8.975,,
,,.30,.300,.29,.31,21 JUL 17,160,13.45,13.85,13.83,13.650,,
,,.14,.135,.13,.14,21 JUL 17,165,18.35,18.95,21.01,18.650,,
,,.07,.065,.06,.07,21 JUL 17,170,23.25,23.75,23.25,23.500,,
,,.04,.035,.03,.04,21 JUL 17,175,28.10,28.75,20.01,28.425,,
,,.03,.025,.02,.03,21 JUL 17,180,33.20,33.85,25.06,33.525,,

18 AUG 17  (66)  100

15 SEP 17  (94)  100

20 OCT 17  (129)  100

17 NOV 17  (157)  100

15 DEC 17  (185)  100

19 JAN 18  (220)  100

16 FEB 18  (248)  100

15 JUN 18  (367)  100

21 SEP 18  (465)  100

18 JAN 19  (584)  100
