﻿thinkBack: Stock quote and option quote for SBGL on 5/4/17 01:59:59

UNDERLYING
Last,Net Chng,Volume,Open,High,Low
7.80,+.09,"3,528,576",7.81,8.1081,7.71

19 MAY 17  (16)  100
,,Last,Mark,Bid,Ask,Exp,Strike,Bid,Ask,Last,Mark,,
,,0,5.400,3.50,7.30,19 MAY 17,2.5,0,.20,0,.100,,
,,0,2.675,.95,4.40,19 MAY 17,5,0,.20,.10,.100,,
,,.75,.550,.30,.80,19 MAY 17,7.5,.10,.35,.18,.225,,
,,.05,.025,0,.05,19 MAY 17,10,2.00,2.60,2.35,2.300,,
,,.14,.050,0,.10,19 MAY 17,12.5,4.30,6.40,3.62,5.350,,
,,0,.175,0,.35,19 MAY 17,15,5.40,9.10,4.40,7.250,,

16 JUN 17  (44)  100
,,Last,Mark,Bid,Ask,Exp,Strike,Bid,Ask,Last,Mark,,
,,6.00,5.400,3.40,7.40,16 JUN 17,2.5,0,.10,0,.050,,
,,0,2.800,1.00,4.60,16 JUN 17,5,0,.35,0,.175,,
,,.75,.800,.55,1.05,16 JUN 17,7.5,.85,1.40,.95,1.125,,
,,.15,.125,.05,.20,16 JUN 17,10,1.55,5.40,2.90,3.475,,
,,0,.075,0,.15,16 JUN 17,12.5,4.70,7.30,5.10,6.000,,
,,.10,.125,0,.25,16 JUN 17,15,8.40,9.40,7.80,8.900,,
,,.25,.200,0,.40,16 JUN 17,17.5,11.00,11.10,10.80,11.050,,

21 JUL 17  (79)  100
,,Last,Mark,Bid,Ask,Exp,Strike,Bid,Ask,Last,Mark,,
,,6.50,5.150,3.40,6.90,21 JUL 17,2.5,0,.35,1.00,.175,,
,,2.90,2.975,2.75,3.20,21 JUL 17,5,.05,.45,.20,.250,,
,,.90,.900,.80,1.00,21 JUL 17,7.5,1.05,1.70,1.20,1.375,,
,,.20,.300,.15,.45,21 JUL 17,10,3.20,4.10,3.70,3.650,,
,,.15,.125,.10,.15,21 JUL 17,12.5,4.40,7.40,4.40,5.900,,
,,.33,.150,0,.30,21 JUL 17,15,6.60,9.80,8.58,8.200,,
,,.13,.150,0,.30,21 JUL 17,17.5,11.10,11.80,11.20,11.450,,

20 OCT 17  (170)  100
,,Last,Mark,Bid,Ask,Exp,Strike,Bid,Ask,Last,Mark,,
,,7.02,5.350,3.90,6.80,20 OCT 17,2.5,0,.35,0,.175,,
,,2.95,3.175,2.75,3.60,20 OCT 17,5,.30,.80,.60,.550,,
,,1.36,1.225,.90,1.55,20 OCT 17,7.5,1.70,2.10,1.70,1.900,,
,,.40,.450,.40,.50,20 OCT 17,10,3.40,4.80,4.10,4.100,,
,,.30,.225,.15,.30,20 OCT 17,12.5,4.50,8.00,5.70,6.250,,
,,.15,.200,.05,.35,20 OCT 17,15,7.10,9.20,7.75,8.150,,
,,.15,.100,0,.20,20 OCT 17,17.5,10.10,12.30,8.90,11.200,,
