﻿thinkBack: Stock quote and option quote for AAPL on 7/6/17 01:59:59

UNDERLYING
Last,Net Chng,Volume,Open,High,Low
144.09,+.59,"21,569,557",143.69,144.79,142.7237

21 JUL 17  (16)  100
,,Last,Mark,Bid,Ask,Exp,Strike,Bid,Ask,Last,Mark,,
,,6.45,6.775,6.65,6.90,21 JUL 17,138,.51,.53,.51,.520,,
,,5.90,5.825,5.75,5.90,21 JUL 17,139,.65,.66,.64,.655,,
,,5.12,5.000,4.95,5.05,21 JUL 17,140,.82,.84,.79,.830,,
,,4.65,4.250,4.20,4.30,21 JUL 17,141,1.04,1.07,1.03,1.055,,
,,3.62,3.525,3.50,3.55,21 JUL 17,142,1.32,1.35,1.28,1.335,,
,,2.94,2.860,2.84,2.88,21 JUL 17,143,1.67,1.70,1.64,1.685,,
,,2.29,2.295,2.27,2.32,21 JUL 17,144,2.09,2.12,2.10,2.105,,
,,1.77,1.775,1.76,1.79,21 JUL 17,145,2.56,2.62,2.49,2.590,,
,,1.38,1.355,1.34,1.37,21 JUL 17,146,3.15,3.20,3.02,3.175,,
,,1.06,1.010,.99,1.03,21 JUL 17,147,3.80,3.90,3.70,3.850,,
,,.77,.750,.74,.76,21 JUL 17,148,4.55,4.60,4.45,4.575,,
,,.54,.550,.54,.56,21 JUL 17,149,5.30,5.45,5.16,5.375,,
,,.37,.400,.39,.41,21 JUL 17,150,6.20,6.30,6.10,6.250,,
,,.18,.200,.19,.21,21 JUL 17,152.5,8.30,8.65,8.55,8.475,,

18 AUG 17  (44)  100
,,Last,Mark,Bid,Ask,Exp,Strike,Bid,Ask,Last,Mark,,
,,33.09,34.350,34.00,34.70,18 AUG 17,110,.11,.12,.16,.115,,
,,29.80,29.450,29.20,29.70,18 AUG 17,115,.18,.19,.19,.185,,
,,23.70,24.550,24.30,24.80,18 AUG 17,120,.30,.32,.30,.310,,
,,19.95,19.775,19.60,19.95,18 AUG 17,125,.51,.54,.52,.525,,
,,15.00,15.125,14.95,15.30,18 AUG 17,130,.93,.95,.94,.940,,
,,10.75,10.850,10.75,10.95,18 AUG 17,135,1.72,1.75,1.70,1.735,,
,,7.14,7.050,7.00,7.10,18 AUG 17,140,3.10,3.20,3.08,3.150,,
,,4.23,4.175,4.15,4.20,18 AUG 17,145,5.25,5.40,5.23,5.325,,
,,2.27,2.215,2.20,2.23,18 AUG 17,150,8.35,8.45,8.34,8.400,,
,,1.09,1.090,1.08,1.10,18 AUG 17,155,12.10,12.40,12.10,12.250,,
,,.54,.535,.53,.54,18 AUG 17,160,16.55,16.90,16.83,16.725,,
,,.27,.275,.27,.28,18 AUG 17,165,21.20,21.70,19.90,21.450,,
,,.16,.155,.15,.16,18 AUG 17,170,26.05,26.60,26.77,26.325,,
,,.10,.095,.09,.10,18 AUG 17,175,31.05,31.70,31.32,31.375,,

15 SEP 17  (72)  100
,,Last,Mark,Bid,Ask,Exp,Strike,Bid,Ask,Last,Mark,,
,,34.30,34.450,34.15,34.75,15 SEP 17,110,.21,.23,.23,.220,,
,,28.39,29.525,29.25,29.80,15 SEP 17,115,.33,.35,.35,.340,,
,,25.15,24.725,24.50,24.95,15 SEP 17,120,.53,.55,.52,.540,,
,,19.30,20.025,19.85,20.20,15 SEP 17,125,.87,.91,.86,.890,,
,,15.45,15.625,15.50,15.75,15 SEP 17,130,1.48,1.52,1.49,1.500,,
,,11.54,11.500,11.40,11.60,15 SEP 17,135,2.50,2.53,2.47,2.515,,
,,8.10,8.025,8.00,8.05,15 SEP 17,140,4.05,4.10,4.10,4.075,,
,,5.25,5.225,5.20,5.25,15 SEP 17,145,6.25,6.35,6.25,6.300,,
,,3.25,3.175,3.15,3.20,15 SEP 17,150,9.25,9.35,9.35,9.300,,
,,1.85,1.840,1.83,1.85,15 SEP 17,155,12.90,13.00,12.85,12.950,,
,,1.02,1.025,1.01,1.04,15 SEP 17,160,16.95,17.30,16.90,17.125,,
,,.59,.580,.57,.59,15 SEP 17,165,21.50,21.90,21.80,21.700,,
,,.34,.345,.34,.35,15 SEP 17,170,26.20,26.70,25.90,26.450,,
,,.21,.220,.21,.23,15 SEP 17,175,31.10,31.60,29.73,31.350,,

20 OCT 17  (107)  100
,,Last,Mark,Bid,Ask,Exp,Strike,Bid,Ask,Last,Mark,,
,,34.30,34.525,34.25,34.80,20 OCT 17,110,.35,.38,.35,.365,,
,,30.00,29.700,29.40,30.00,20 OCT 17,115,.53,.57,.60,.550,,
,,25.00,25.000,24.75,25.25,20 OCT 17,120,.83,.89,.87,.860,,
,,20.55,20.500,20.30,20.70,20 OCT 17,125,1.34,1.39,1.28,1.365,,
,,16.25,16.275,16.10,16.45,20 OCT 17,130,2.15,2.20,2.14,2.175,,
,,12.33,12.450,12.35,12.55,20 OCT 17,135,3.35,3.45,3.23,3.400,,
,,9.40,9.200,9.15,9.25,20 OCT 17,140,5.10,5.15,5.00,5.125,,
,,6.55,6.500,6.45,6.55,20 OCT 17,145,7.35,7.45,7.37,7.400,,
,,4.45,4.400,4.35,4.45,20 OCT 17,150,10.25,10.35,10.00,10.300,,
,,2.90,2.865,2.85,2.88,20 OCT 17,155,13.75,13.90,13.75,13.825,,
,,1.86,1.805,1.77,1.84,20 OCT 17,160,17.65,17.85,17.96,17.750,,
,,1.17,1.150,1.13,1.17,20 OCT 17,165,21.90,22.50,22.39,22.200,,
,,.74,.745,.73,.76,20 OCT 17,170,26.50,26.95,22.15,26.725,,
,,.49,.500,.49,.51,20 OCT 17,175,31.30,31.75,31.18,31.525,,

17 NOV 17  (135)  100

15 DEC 17  (163)  100
,,Last,Mark,Bid,Ask,Exp,Strike,Bid,Ask,Last,Mark,,
,,36.50,34.800,34.50,35.10,15 DEC 17,110,.74,.76,.74,.750,,
,,29.70,30.150,29.90,30.40,15 DEC 17,115,1.12,1.15,1.15,1.135,,
,,24.85,25.700,25.50,25.90,15 DEC 17,120,1.67,1.72,1.67,1.695,,
,,20.45,21.450,21.30,21.60,15 DEC 17,125,2.49,2.53,2.51,2.510,,
,,18.02,17.525,17.45,17.60,15 DEC 17,130,3.60,3.65,3.60,3.625,,
,,14.23,14.025,13.95,14.10,15 DEC 17,135,5.10,5.15,4.97,5.125,,
,,11.04,10.925,10.85,11.00,15 DEC 17,140,7.00,7.10,7.04,7.050,,
,,8.40,8.300,8.25,8.35,15 DEC 17,145,9.40,9.50,9.09,9.450,,
,,6.04,6.200,6.15,6.25,15 DEC 17,150,12.25,12.40,11.95,12.325,,
,,4.50,4.450,4.40,4.50,15 DEC 17,155,15.55,15.70,15.55,15.625,,
,,3.23,3.200,3.15,3.25,15 DEC 17,160,19.25,19.40,19.16,19.325,,
,,2.27,2.240,2.22,2.26,15 DEC 17,165,23.15,23.55,21.85,23.350,,
,,1.54,1.570,1.54,1.60,15 DEC 17,170,27.40,27.85,28.11,27.625,,
,,1.07,1.105,1.08,1.13,15 DEC 17,175,31.95,32.40,31.25,32.175,,

19 JAN 18  (198)  100
,,Last,Mark,Bid,Ask,Exp,Strike,Bid,Ask,Last,Mark,,
,,34.86,35.050,34.80,35.30,19 JAN 18,110,1.02,1.06,1.02,1.040,,
,,30.50,30.500,30.25,30.75,19 JAN 18,115,1.45,1.52,1.50,1.485,,
,,26.20,26.100,25.90,26.30,19 JAN 18,120,2.08,2.13,2.25,2.105,,
,,22.05,22.025,21.90,22.15,19 JAN 18,125,2.96,3.05,2.97,3.005,,
,,18.27,18.175,18.10,18.25,19 JAN 18,130,4.15,4.25,4.21,4.200,,
,,14.74,14.725,14.65,14.80,19 JAN 18,135,5.70,5.80,5.71,5.750,,
,,11.94,11.725,11.65,11.80,19 JAN 18,140,7.65,7.75,7.70,7.700,,
,,9.20,9.150,9.10,9.20,19 JAN 18,145,10.05,10.15,9.85,10.100,,
,,7.02,6.950,6.90,7.00,19 JAN 18,150,12.90,13.00,12.94,12.950,,
,,5.25,5.225,5.20,5.25,19 JAN 18,155,16.15,16.30,15.86,16.225,,
,,3.85,3.850,3.80,3.90,19 JAN 18,160,19.75,19.90,19.75,19.825,,
,,2.85,2.810,2.79,2.83,19 JAN 18,165,23.60,23.90,24.54,23.750,,
,,2.05,2.060,2.05,2.07,19 JAN 18,170,27.80,28.15,28.00,27.975,,
,,1.50,1.495,1.47,1.52,19 JAN 18,175,32.20,32.60,30.60,32.400,,

16 FEB 18  (226)  100

20 APR 18  (289)  100

15 JUN 18  (345)  100
,,Last,Mark,Bid,Ask,Exp,Strike,Bid,Ask,Last,Mark,,
,,35.37,36.350,35.90,36.80,15 JUN 18,110,2.46,2.55,2.53,2.505,,
,,31.65,32.125,31.90,32.35,15 JUN 18,115,3.30,3.35,3.30,3.325,,
,,27.29,28.225,27.95,28.50,15 JUN 18,120,4.30,4.40,4.33,4.350,,
,,24.80,24.450,24.30,24.60,15 JUN 18,125,5.60,5.70,5.70,5.650,,
,,20.60,21.050,20.95,21.15,15 JUN 18,130,7.15,7.25,7.15,7.200,,
,,17.80,17.975,17.90,18.05,15 JUN 18,135,9.00,9.10,9.00,9.050,,
,,15.28,15.200,15.15,15.25,15 JUN 18,140,11.20,11.30,11.20,11.250,,
,,12.64,12.675,12.60,12.75,15 JUN 18,145,13.65,13.80,13.50,13.725,,
,,10.55,10.525,10.45,10.60,15 JUN 18,150,16.45,16.60,16.46,16.525,,
,,8.75,8.625,8.55,8.70,15 JUN 18,155,19.50,19.65,19.25,19.575,,
,,7.00,7.075,7.00,7.15,15 JUN 18,160,22.90,23.00,22.40,22.950,,
,,5.73,5.725,5.65,5.80,15 JUN 18,165,26.50,26.70,27.10,26.600,,
,,4.63,4.625,4.55,4.70,15 JUN 18,170,30.40,30.60,30.00,30.500,,
,,3.80,3.750,3.70,3.80,15 JUN 18,175,34.10,34.70,26.00,34.400,,

21 SEP 18  (443)  100
,,Last,Mark,Bid,Ask,Exp,Strike,Bid,Ask,Last,Mark,,
,,0,37.075,36.50,37.65,21 SEP 18,110,3.45,3.60,3.75,3.525,,
,,34.95,33.275,32.90,33.65,21 SEP 18,115,4.40,4.60,4.65,4.500,,
,,31.05,29.425,29.20,29.65,21 SEP 18,120,5.65,5.80,5.70,5.725,,
,,25.63,25.925,25.75,26.10,21 SEP 18,125,7.10,7.30,7.40,7.200,,
,,22.75,22.775,22.50,23.05,21 SEP 18,130,8.80,9.00,9.00,8.900,,
,,19.80,19.800,19.60,20.00,21 SEP 18,135,10.75,10.95,10.55,10.850,,
,,17.15,17.125,16.95,17.30,21 SEP 18,140,13.00,13.20,13.15,13.100,,
,,14.65,14.675,14.50,14.85,21 SEP 18,145,15.50,15.70,15.85,15.600,,
,,12.75,12.475,12.35,12.60,21 SEP 18,150,18.25,18.50,19.10,18.375,,
,,10.80,10.575,10.45,10.70,21 SEP 18,155,21.35,21.55,21.75,21.450,,
,,9.10,8.975,8.85,9.10,21 SEP 18,160,24.60,24.80,24.20,24.700,,
,,7.18,7.525,7.40,7.65,21 SEP 18,165,28.10,28.35,27.75,28.225,,
,,6.30,6.275,6.15,6.40,21 SEP 18,170,31.80,32.10,32.40,31.950,,
,,5.40,5.250,5.15,5.35,21 SEP 18,175,35.55,36.00,33.50,35.775,,

18 JAN 19  (562)  100
,,Last,Mark,Bid,Ask,Exp,Strike,Bid,Ask,Last,Mark,,
,,38.35,38.425,38.00,38.85,18 JAN 19,110,4.55,4.75,4.58,4.650,,
,,34.00,34.575,34.20,34.95,18 JAN 19,115,5.70,5.95,5.70,5.825,,
,,30.94,31.025,30.70,31.35,18 JAN 19,120,7.10,7.25,7.10,7.175,,
,,27.75,27.750,27.45,28.05,18 JAN 19,125,8.70,8.85,8.78,8.775,,
,,24.70,24.600,24.40,24.80,18 JAN 19,130,10.50,10.80,10.52,10.650,,
,,21.80,21.775,21.65,21.90,18 JAN 19,135,12.55,12.80,12.60,12.675,,
,,19.34,19.225,19.15,19.30,18 JAN 19,140,14.85,15.10,14.91,14.975,,
,,16.95,16.850,16.75,16.95,18 JAN 19,145,17.45,17.60,17.30,17.525,,
,,14.85,14.775,14.70,14.85,18 JAN 19,150,20.25,20.45,20.25,20.350,,
,,12.85,12.800,12.70,12.90,18 JAN 19,155,23.25,23.40,23.20,23.325,,
,,11.10,11.175,11.10,11.25,18 JAN 19,160,26.50,26.65,26.85,26.575,,
,,9.69,9.700,9.55,9.85,18 JAN 19,165,29.90,30.15,28.30,30.025,,
,,8.50,8.400,8.25,8.55,18 JAN 19,170,33.40,33.70,34.00,33.550,,
,,7.24,7.175,7.10,7.25,18 JAN 19,175,37.30,37.75,37.04,37.525,,
