﻿thinkBack: Stock quote and option quote for GOOG on 7/10/17 01:59:59

UNDERLYING
Last,Net Chng,Volume,Open,High,Low
918.59,+11.90,"1,637,785",908.85,921.54,908.85

21 JUL 17  (12)  100
,,Last,Mark,Bid,Ask,Exp,Strike,Bid,Ask,Last,Mark,,
,,20.40,23.500,22.30,24.70,21 JUL 17,902.5,6.30,8.80,7.12,7.550,,
,,20.95,21.950,21.10,22.80,21 JUL 17,905,6.90,9.60,7.09,8.250,,
,,20.69,20.150,19.30,21.00,21 JUL 17,907.5,7.60,10.30,7.38,8.950,,
,,19.17,18.550,17.70,19.40,21 JUL 17,910,8.30,11.20,8.67,9.750,,
,,18.09,16.850,16.00,17.70,21 JUL 17,912.5,9.40,12.10,9.85,10.750,,
,,15.83,15.300,14.50,16.10,21 JUL 17,915,10.20,13.00,10.41,11.600,,
,,14.90,14.000,13.40,14.60,21 JUL 17,917.5,11.30,13.80,11.80,12.550,,
,,12.51,13.050,12.10,14.00,21 JUL 17,920,12.50,13.70,12.80,13.100,,
,,11.81,11.350,10.80,11.90,21 JUL 17,922.5,13.70,16.50,13.29,15.100,,
,,10.11,10.800,9.50,12.10,21 JUL 17,925,15.00,17.90,14.65,16.450,,
,,9.51,9.000,8.50,9.50,21 JUL 17,927.5,15.70,19.00,17.24,17.350,,
,,7.91,8.650,7.50,9.80,21 JUL 17,930,17.90,20.80,18.14,19.350,,
,,7.20,7.800,6.50,9.10,21 JUL 17,932.5,18.90,22.10,24.12,20.500,,
,,6.30,6.150,5.50,6.80,21 JUL 17,935,20.50,24.00,20.85,22.250,,

18 AUG 17  (40)  100
,,Last,Mark,Bid,Ask,Exp,Strike,Bid,Ask,Last,Mark,,
,,53.32,52.450,51.10,53.80,18 AUG 17,885,16.00,17.30,17.20,16.650,,
,,43.45,49.100,48.00,50.20,18 AUG 17,890,18.00,19.10,18.91,18.550,,
,,46.30,45.700,44.60,46.80,18 AUG 17,895,19.50,20.30,19.94,19.900,,
,,43.33,42.450,41.50,43.40,18 AUG 17,900,21.50,22.20,20.89,21.850,,
,,40.54,39.400,38.30,40.50,18 AUG 17,905,22.90,24.40,22.92,23.650,,
,,36.70,36.350,35.40,37.30,18 AUG 17,910,25.40,26.50,25.60,25.950,,
,,31.41,33.550,32.60,34.50,18 AUG 17,915,27.40,28.40,31.06,27.900,,
,,31.00,31.000,30.00,32.00,18 AUG 17,920,29.90,31.00,29.75,30.450,,
,,26.16,28.250,27.40,29.10,18 AUG 17,925,31.90,33.20,32.40,32.550,,
,,26.63,25.800,25.00,26.60,18 AUG 17,930,34.90,36.10,34.50,35.500,,
,,22.20,23.550,22.80,24.30,18 AUG 17,935,36.90,38.80,41.89,37.850,,
,,21.91,21.350,20.60,22.10,18 AUG 17,940,40.40,41.80,39.60,41.100,,
,,19.04,19.350,18.60,20.10,18 AUG 17,945,42.70,44.30,49.74,43.500,,
,,17.87,17.350,16.80,17.90,18 AUG 17,950,46.50,47.80,46.33,47.150,,

15 SEP 17  (68)  100
,,Last,Mark,Bid,Ask,Exp,Strike,Bid,Ask,Last,Mark,,
,,58.00,58.200,57.10,59.30,15 SEP 17,885,20.70,22.20,30.00,21.450,,
,,53.97,54.950,53.90,56.00,15 SEP 17,890,22.40,23.90,26.40,23.150,,
,,52.30,51.600,50.50,52.70,15 SEP 17,895,24.20,25.70,24.73,24.950,,
,,47.78,48.450,47.40,49.50,15 SEP 17,900,26.00,27.50,26.33,26.750,,
,,39.35,45.500,44.60,46.40,15 SEP 17,905,28.00,29.50,29.00,28.750,,
,,42.50,42.500,41.50,43.50,15 SEP 17,910,30.80,31.80,30.00,31.300,,
,,39.40,39.650,38.70,40.60,15 SEP 17,915,32.20,33.80,32.60,33.000,,
,,37.40,37.050,36.20,37.90,15 SEP 17,920,34.50,36.10,35.90,35.300,,
,,34.95,34.500,33.50,35.50,15 SEP 17,925,36.90,38.60,38.34,37.750,,
,,30.60,32.050,31.30,32.80,15 SEP 17,930,39.40,41.20,39.69,40.300,,
,,30.10,29.500,28.60,30.40,15 SEP 17,935,42.10,43.80,42.41,42.950,,
,,27.80,27.350,26.60,28.10,15 SEP 17,940,44.90,46.50,47.10,45.700,,
,,20.61,25.250,24.60,25.90,15 SEP 17,945,47.70,49.40,58.45,48.550,,
,,23.90,23.250,22.40,24.10,15 SEP 17,950,50.70,52.50,50.94,51.600,,

17 NOV 17  (131)  100
,,Last,Mark,Bid,Ask,Exp,Strike,Bid,Ask,Last,Mark,,
,,116.00,96.800,95.10,98.50,17 NOV 17,850,22.00,23.40,22.32,22.700,,
,,81.40,89.150,87.10,91.20,17 NOV 17,860,24.80,26.00,29.60,25.400,,
,,101.30,82.350,81.20,83.50,17 NOV 17,870,27.90,29.50,28.45,28.700,,
,,79.70,75.750,74.50,77.00,17 NOV 17,880,31.20,32.70,31.20,31.950,,
,,65.25,69.450,68.30,70.60,17 NOV 17,890,34.90,36.30,35.00,35.600,,
,,58.23,63.500,62.50,64.50,17 NOV 17,900,38.90,40.40,45.77,39.650,,
,,54.36,57.750,56.80,58.70,17 NOV 17,910,43.10,44.80,43.60,43.950,,
,,50.14,52.400,51.40,53.40,17 NOV 17,920,47.70,49.40,48.50,48.550,,
,,44.73,47.350,46.30,48.40,17 NOV 17,930,52.70,54.60,59.30,53.650,,
,,37.53,42.600,41.60,43.60,17 NOV 17,940,57.90,60.00,40.10,58.950,,
,,38.00,38.200,37.30,39.10,17 NOV 17,950,63.50,65.40,74.90,64.450,,
,,34.25,34.150,33.30,35.00,17 NOV 17,960,69.50,71.60,77.35,70.550,,
,,29.20,30.400,29.50,31.30,17 NOV 17,970,75.70,77.70,70.20,76.700,,
,,32.00,27.000,26.20,27.80,17 NOV 17,980,81.60,84.40,0,83.000,,

15 DEC 17  (159)  100
,,Last,Mark,Bid,Ask,Exp,Strike,Bid,Ask,Last,Mark,,
,,92.99,77.150,75.30,79.00,15 DEC 17,885,36.30,37.90,38.80,37.100,,
,,84.10,73.950,72.90,75.00,15 DEC 17,890,38.20,41.20,47.94,39.700,,
,,63.00,71.150,69.80,72.50,15 DEC 17,895,40.10,43.20,46.00,41.650,,
,,63.00,67.750,66.80,68.70,15 DEC 17,900,42.10,44.10,43.70,43.100,,
,,61.10,64.950,63.90,66.00,15 DEC 17,905,44.30,47.30,37.00,45.800,,
,,63.03,62.150,60.40,63.90,15 DEC 17,910,46.40,49.60,46.90,48.000,,
,,56.50,59.500,57.80,61.20,15 DEC 17,915,48.70,51.70,53.20,50.200,,
,,57.94,56.650,55.20,58.10,15 DEC 17,920,51.00,52.90,52.41,51.950,,
,,46.93,54.250,53.00,55.50,15 DEC 17,925,53.40,56.10,53.00,54.750,,
,,52.00,51.850,50.30,53.40,15 DEC 17,930,55.80,59.10,62.00,57.450,,
,,42.50,49.450,48.10,50.80,15 DEC 17,935,58.50,60.40,72.60,59.450,,
,,46.86,46.950,45.40,48.50,15 DEC 17,940,61.30,63.10,61.50,62.200,,
,,39.01,38.750,37.30,40.20,15 DEC 17,960,72.50,75.50,76.90,74.000,,
,,30.40,31.050,29.50,32.60,15 DEC 17,980,85.10,87.40,96.28,86.250,,

19 JAN 18  (194)  100
,,Last,Mark,Bid,Ask,Exp,Strike,Bid,Ask,Last,Mark,,
,,144.00,142.750,140.70,144.80,19 JAN 18,800,16.80,18.00,17.20,17.400,,
,,134.00,135.050,133.30,136.80,19 JAN 18,810,18.70,20.10,24.38,19.400,,
,,126.70,127.000,125.20,128.80,19 JAN 18,820,20.80,22.10,21.60,21.450,,
,,107.30,112.050,110.40,113.70,19 JAN 18,840,25.70,27.10,26.30,26.400,,
,,98.50,98.000,96.50,99.50,19 JAN 18,860,30.80,32.90,31.81,31.850,,
,,86.00,84.950,84.00,85.90,19 JAN 18,880,38.30,39.70,39.20,39.000,,
,,72.36,72.700,71.30,74.10,19 JAN 18,900,45.40,47.40,46.08,46.400,,
,,62.27,61.150,59.50,62.80,19 JAN 18,920,54.50,56.50,55.89,55.500,,
,,51.70,51.850,50.80,52.90,19 JAN 18,940,63.80,66.40,64.63,65.100,,
,,42.50,42.450,41.40,43.50,19 JAN 18,960,75.20,77.70,83.94,76.450,,
,,33.53,34.650,32.60,36.70,19 JAN 18,980,88.20,89.90,104.96,89.050,,
,,28.10,27.250,26.00,28.50,19 JAN 18,1000,101.30,104.90,116.90,103.100,,
,,21.24,22.300,20.40,24.20,19 JAN 18,1020,115.00,118.20,113.50,116.600,,
,,16.80,17.750,17.00,18.50,19 JAN 18,1040,131.00,133.70,135.30,132.350,,

15 JUN 18  (341)  100
,,Last,Mark,Bid,Ask,Exp,Strike,Bid,Ask,Last,Mark,,
,,125.00,126.550,124.60,128.50,15 JUN 18,850,44.80,47.40,49.60,46.100,,
,,140.83,120.150,118.40,121.90,15 JUN 18,860,48.30,50.80,50.00,49.550,,
,,124.83,113.800,112.10,115.50,15 JUN 18,870,51.70,54.40,54.90,53.050,,
,,95.00,107.600,105.70,109.50,15 JUN 18,880,55.40,58.90,61.38,57.150,,
,,125.58,102.050,100.40,103.70,15 JUN 18,890,59.60,63.00,56.50,61.300,,
,,95.16,96.100,94.20,98.00,15 JUN 18,900,63.90,66.50,71.85,65.200,,
,,93.10,90.650,88.80,92.50,15 JUN 18,910,68.20,71.80,65.90,70.000,,
,,82.66,85.250,83.50,87.00,15 JUN 18,920,72.70,76.40,75.00,74.550,,
,,79.70,80.000,78.00,82.00,15 JUN 18,930,77.70,81.30,65.60,79.500,,
,,73.60,75.050,73.10,77.00,15 JUN 18,940,82.70,85.60,92.35,84.150,,
,,68.20,70.450,68.60,72.30,15 JUN 18,950,87.80,90.90,97.86,89.350,,
,,61.00,66.200,64.80,67.60,15 JUN 18,960,93.20,96.50,102.20,94.850,,
,,61.30,61.600,59.80,63.40,15 JUN 18,970,98.90,103.00,74.00,100.950,,
,,77.00,58.100,56.50,59.70,15 JUN 18,980,105.00,108.00,88.50,106.500,,

21 SEP 18  (439)  100
,,Last,Mark,Bid,Ask,Exp,Strike,Bid,Ask,Last,Mark,,
,,134.70,137.200,135.10,139.30,21 SEP 18,850,53.10,55.10,61.20,54.100,,
,,128.50,131.300,129.70,132.90,21 SEP 18,860,56.90,58.90,60.93,57.900,,
,,123.90,125.200,123.50,126.90,21 SEP 18,870,60.50,62.50,51.60,61.500,,
,,118.10,119.300,117.60,121.00,21 SEP 18,880,64.60,66.60,74.21,65.600,,
,,114.58,113.500,111.70,115.30,21 SEP 18,890,68.30,70.90,75.00,69.600,,
,,105.86,108.000,106.30,109.70,21 SEP 18,900,73.20,75.30,78.50,74.250,,
,,100.46,102.750,101.10,104.40,21 SEP 18,910,77.20,79.60,74.00,78.400,,
,,120.29,96.850,94.70,99.00,21 SEP 18,920,82.20,84.40,61.00,83.300,,
,,95.50,92.450,90.70,94.20,21 SEP 18,930,87.10,89.20,0,88.150,,
,,0,87.500,85.60,89.40,21 SEP 18,940,91.90,94.60,68.70,93.250,,
,,76.50,82.700,80.90,84.50,21 SEP 18,950,97.00,99.50,0,98.250,,
,,99.38,78.200,76.40,80.00,21 SEP 18,960,102.70,104.90,0,103.800,,
,,70.70,73.850,72.00,75.70,21 SEP 18,970,108.10,111.20,93.40,109.650,,
,,93.00,69.850,68.20,71.50,21 SEP 18,980,114.00,117.50,86.50,115.750,,

18 JAN 19  (558)  100
,,Last,Mark,Bid,Ask,Exp,Strike,Bid,Ask,Last,Mark,,
,,198.00,167.750,165.50,170.00,18 JAN 19,820,51.80,55.60,55.36,53.700,,
,,157.00,161.600,159.70,163.50,18 JAN 19,830,55.10,59.10,60.70,57.100,,
,,167.55,154.850,152.70,157.00,18 JAN 19,840,58.00,62.50,63.80,60.250,,
,,137.50,149.150,147.30,151.00,18 JAN 19,850,61.60,66.00,67.20,63.800,,
,,143.50,143.150,141.30,145.00,18 JAN 19,860,65.30,70.00,71.80,67.650,,
,,118.82,131.450,129.40,133.50,18 JAN 19,880,73.70,77.90,74.70,75.800,,
,,119.00,120.650,118.80,122.50,18 JAN 19,900,82.10,86.50,82.45,84.300,,
,,98.37,110.050,108.10,112.00,18 JAN 19,920,91.10,95.50,98.40,93.300,,
,,100.08,99.600,98.20,101.00,18 JAN 19,940,101.10,105.50,107.00,103.300,,
,,84.80,91.100,89.20,93.00,18 JAN 19,960,112.00,116.50,119.35,114.250,,
,,78.00,82.550,80.60,84.50,18 JAN 19,980,122.50,127.00,110.00,124.750,,
,,74.95,74.750,73.00,76.50,18 JAN 19,1000,134.50,139.00,107.44,136.750,,
,,62.41,67.050,65.10,69.00,18 JAN 19,1020,146.60,151.50,114.92,149.050,,
,,57.00,60.500,58.50,62.50,18 JAN 19,1040,160.20,165.00,128.84,162.600,,

21 JUN 19  (712)  100
,,Last,Mark,Bid,Ask,Exp,Strike,Bid,Ask,Last,Mark,,
,,165.00,164.800,162.60,167.00,21 JUN 19,850,73.60,77.00,74.70,75.300,,
,,149.90,159.050,157.10,161.00,21 JUN 19,860,76.60,80.90,78.50,78.750,,
,,178.02,153.600,151.70,155.50,21 JUN 19,870,80.50,85.00,0,82.750,,
,,136.50,148.100,146.20,150.00,21 JUN 19,880,84.70,89.10,93.80,86.900,,
,,168.50,142.600,140.70,144.50,21 JUN 19,890,89.00,93.50,98.10,91.250,,
,,136.00,136.300,134.60,138.00,21 JUN 19,900,93.60,98.40,103.00,96.000,,
,,129.50,131.950,129.90,134.00,21 JUN 19,910,98.10,102.90,95.00,100.500,,
,,125.50,126.500,124.50,128.50,21 JUN 19,920,103.00,107.40,106.91,105.200,,
,,127.00,121.900,119.80,124.00,21 JUN 19,930,107.70,112.50,105.30,110.100,,
,,141.25,117.150,115.30,119.00,21 JUN 19,940,112.90,117.50,98.50,115.200,,
,,108.00,112.650,110.80,114.50,21 JUN 19,950,118.00,122.40,0,120.200,,
,,136.58,107.850,105.70,110.00,21 JUN 19,960,123.10,127.90,0,125.500,,
,,96.30,103.650,101.80,105.50,21 JUN 19,970,128.60,133.40,121.04,131.000,,
,,101.50,99.100,97.20,101.00,21 JUN 19,980,134.20,138.90,0,136.550,,
